…
1.  Кластеризовать запросы от устройств к точкам доступа по их именам.
    Определить время появления устройства в зоне радиовидимости и время
    выхода его из нее.

``` r
dataset_2 %>% filter(!is.na(Probed.ESSIDs)) %>% group_by(Station.MAC, Probed.ESSIDs) %>%  summarise("first" = min(First.time.seen), "last" = max(Last.time.seen), Power)
```

    `summarise()` has grouped output by 'Station.MAC'. You can override using the
    `.groups` argument.

    # A tibble: 1,477 × 5
    # Groups:   Station.MAC [1,477]
       Station.MAC       Probed.ESSIDs                    first          last  Power
       <chr>             <chr>                            <chr>          <chr> <chr>
     1 00:90:4C:E6:54:54 Redmi                            " 2023-07-28 … " 20… " -6…
     2 00:95:69:E7:7C:ED nvripcsuite                      " 2023-07-28 … " 20… " -5…
     3 00:95:69:E7:7D:21 nvripcsuite                      " 2023-07-28 … " 20… " -3…
     4 00:95:69:E7:7F:35 nvripcsuite                      " 2023-07-28 … " 20… " -6…
     5 00:F4:8D:F7:C5:19 Redmi 12                         " 2023-07-28 … " 20… " -7…
     6 02:00:00:00:00:00 xt3 w64dtgv5cfrxhttps://vk.com/v " 2023-07-28 … " 20… " -6…
     7 02:06:2B:A5:0C:31 Avenue611                        " 2023-07-28 … " 20… " -6…
     8 02:1D:0F:A4:94:74 iPhone (Дима )                   " 2023-07-28 … " 20… " -6…
     9 02:32:DC:56:5C:82 Timo Resort                      " 2023-07-28 … " 20… " -8…
    10 02:35:E9:C2:44:5F iPhone (Максим)                  " 2023-07-28 … " 20… " -8…
    # ℹ 1,467 more rows
…
