…
    # A tibble: 1 × 1
      name       
      <chr>      
    1 Yarael Poof

1.  Найти всех персонажей ниже 170.

``` r
starwars %>% filter(height < 170)
```

    # A tibble: 23 × 14
       name     height  mass hair_color skin_color eye_color birth_year sex   gender
       <chr>     <int> <dbl> <chr>      <chr>      <chr>          <dbl> <chr> <chr> 
     1 C-3PO       167    75 <NA>       gold       yellow           112 none  mascu…
     2 R2-D2        96    32 <NA>       white, bl… red               33 none  mascu…
     3 Leia Or…    150    49 brown      light      brown             19 fema… femin…
     4 Beru Wh…    165    75 brown      light      blue              47 fema… femin…
     5 R5-D4        97    32 <NA>       white, red red               NA none  mascu…
     6 Yoda         66    17 white      green      brown            896 male  mascu…
     7 Mon Mot…    150    NA auburn     fair       blue              48 fema… femin…
     8 Wicket …     88    20 brown      brown      brown              8 male  mascu…
     9 Nien Nu…    160    68 none       grey       black             NA male  mascu…
    10 Watto       137    NA black      blue, grey yellow            NA male  mascu…
    # ℹ 13 more rows
    # ℹ 5 more variables: homeworld <chr>, species <chr>, films <list>,
    #   vehicles <list>, starships <list>

1.  Подсчитать ИМТ (индекс массы тела) для всех персонажей.

``` r
starwars %>% mutate('ИМТ' = mass/(height * height))
```

    # A tibble: 87 × 15
       name     height  mass hair_color skin_color eye_color birth_year sex   gender
       <chr>     <int> <dbl> <chr>      <chr>      <chr>          <dbl> <chr> <chr> 
     1 Luke Sk…    172    77 blond      fair       blue            19   male  mascu…
     2 C-3PO       167    75 <NA>       gold       yellow         112   none  mascu…
     3 R2-D2        96    32 <NA>       white, bl… red             33   none  mascu…
     4 Darth V…    202   136 none       white      yellow          41.9 male  mascu…
     5 Leia Or…    150    49 brown      light      brown           19   fema… femin…
     6 Owen La…    178   120 brown, gr… light      blue            52   male  mascu…
     7 Beru Wh…    165    75 brown      light      blue            47   fema… femin…
     8 R5-D4        97    32 <NA>       white, red red             NA   none  mascu…
     9 Biggs D…    183    84 black      light      brown           24   male  mascu…
    10 Obi-Wan…    182    77 auburn, w… fair       blue-gray       57   male  mascu…
    # ℹ 77 more rows
    # ℹ 6 more variables: homeworld <chr>, species <chr>, films <list>,
    #   vehicles <list>, starships <list>, ИМТ <dbl>
…
    # A tibble: 1 × 1
      eye_color
      <chr>    
    1 brown    

1.  Подсчитать среднюю длину имени в каждой расе вселенной Звездных
    войн.

``` r
starwars %>% group_by(species) %>%  summarize(средний = mean(nchar(name)))
```

    # A tibble: 38 × 2
       species   средний
       <chr>       <dbl>
     1 Aleena      13   
     2 Besalisk    15   
     3 Cerean      12   
     4 Chagrian    10   
     5 Clawdite    10   
     6 Droid        4.83
     7 Dug          7   
     8 Ewok        21   
     9 Geonosian   17   
    10 Gungan      11.7 
    # ℹ 28 more rows
…
